<svg xmlns="http://www.w3.org/2000/svg" xml:space="preserve" width="16" height="16">
  <path d="M9.5 5.5h-4v2h3a1 1 45 0 1 1 1v1a1 1 135 0 1-1 1h-3" style="fill:none;stroke:#fe00fe;stroke-linecap:round;stroke-linejoin:round"/>
</svg>
