<svg xmlns="http://www.w3.org/2000/svg" xml:space="preserve" width="16" height="16">
  <path d="M8.5 5.5h-2a1 1 135 0 0-1 1v3a1 1 45 0 0 1 1h2a1 1 135 0 0 1-1 1 1 45 0 0-1-1H6" style="fill:none;stroke:#dbb7ff;stroke-linecap:round"/>
</svg>
