<svg xmlns="http://www.w3.org/2000/svg" xml:space="preserve" width="16" height="16">
  <g style="fill:none;stroke:#80e0ff">
    <rect width="3" height="3" x="6.5" y="4.5" ry="1"/>
    <rect width="3" height="3" x="6.5" y="7.5" ry="1"/>
  </g>
</svg>
