<svg xmlns="http://www.w3.org/2000/svg" xml:space="preserve" width="16" height="16">
  <path d="M10.5 4.5a2 2 135 0 0-2 2v3a1 1 45 0 0 1 1 1 1 135 0 0 1-1v-1a1 1 45 0 0-1-1h-1M4.5 10.5a2 2 135 0 0 2-2v-3a1 1 45 0 0-1-1 1 1 135 0 0-1 1v1a1 1 45 0 0 1 1h1" style="fill:none;stroke:#8080ff;stroke-linecap:round;stroke-linejoin:round"/>
</svg>
