<svg xmlns="http://www.w3.org/2000/svg" xml:space="preserve" width="16" height="16">
  <path d="M10.5 6.5a1 1 45 0 0-1-1h-3a1 1 135 0 0-1 1v3a1 1 45 0 0 1 1h3a1 1 135 0 0 1-1" style="fill:none;stroke:#c0c0c0;stroke-linecap:round;stroke-linejoin:round"/>
</svg>
