<svg width="16" height="16" xmlns:xlink="http://www.w3.org/1999/xlink" xmlns="http://www.w3.org/2000/svg">
  <defs>
    <linearGradient id="a" x1="0" y1="12" x2="0" y2="7" gradientUnits="userSpaceOnUse">
      <stop style="stop-color:#00ff29;stop-opacity:1" offset="0"/>
      <stop style="stop-color:#002bff;stop-opacity:1" offset="1"/>
    </linearGradient>
    <linearGradient id="b" x1="0" y1="12" x2="0" y2="3" gradientUnits="userSpaceOnUse">
      <stop style="stop-color:#61ff01;stop-opacity:1" offset="0"/>
      <stop style="stop-color:#fffc00;stop-opacity:1" offset=".5"/>
      <stop style="stop-color:red;stop-opacity:1" offset="1"/>
    </linearGradient>
  </defs>
  <path style="fill:url(#a)" d="M3 7v2.5L4.5 12H8L4.666 7H3z"/>
  <path style="fill:url(#b)" d="m4.5 12 6-9h3L8 12Z"/>
</svg>
