<svg width="16" height="16" xmlns="http://www.w3.org/2000/svg">
  <path fill="#fff" d="M5.5 3A2.51 2.51 0 0 0 3 5.5v5A2.51 2.51 0 0 0 5.5 13h5a2.51 2.51 0 0 0 2.5-2.5v-5A2.51 2.51 0 0 0 10.5 3Z"/>
  <path style="fill:none;stroke:#3e44dd;stroke-linecap:round" d="M8.5 8.5c0 1.5-2 1.5-2 0 0-1.25 1-2 1.75-2 .79 0 2.25.25 2.25 2.25s-1.75 2.75-3 2.75c-1.75 0-3-1-3-3.5 0-1.75 1.75-3.5 3.75-3.5 2.25 0 4.25 1.5 4.25 4"/>
</svg>
