<svg width="16" height="16" xmlns="http://www.w3.org/2000/svg">
  <path style="fill:#675a9f;stroke:#3b2c64;stroke-width:.25" d="m3.59 5.951.27-.054A3.306 3.306 155.91 0 0 5.195 5.3a1.5 1.5 161.565 0 1 .9-.3h4a1.5 1.5 18.435 0 1 .9.3 3.306 3.306 24.09 0 0 1.336.597l.27.054a.325.325 48.867 0 1 .26.298l.203 3.253a.649.649 123.994 0 1-.442.656l-1.252.417A8.282 8.282 170.783 0 1 8.751 11H7.44a8.282 8.282 9.217 0 1-2.619-.425l-1.251-.417a.649.649 56.006 0 1-.443-.656l.204-3.253a.325.325 131.133 0 1 .26-.298z"/>
  <path fill="#2d312f" d="M5.845 5.75h4.5a.265.265 43.317 0 1 .265.25l.206 3.502a.564.564 128.164 0 1-.462.587 12.628 12.628 0 0 1-4.518 0 .585.585 53.673 0 1-.46-.625L5.58 6a.265.265 136.683 0 1 .265-.25Z"/>
  <path fill="#8b8c87" d="M5.845 6h4.5v3h-4.5z"/>
</svg>
