<svg width="16" height="16" xmlns:xlink="http://www.w3.org/1999/xlink" xmlns="http://www.w3.org/2000/svg">
  <defs>
    <radialGradient xlink:href="#y" id="z" cx="2.351" cy="2.602" fx="2.351" fy="2.602" r="8" gradientUnits="userSpaceOnUse" gradientTransform="matrix(3.75 3.75 -1 1 -3.714 -8.917)"/>
    <linearGradient id="y">
      <stop style="stop-color:#cdcdcd;stop-opacity:1" offset="0"/>
      <stop style="stop-color:#414141;stop-opacity:1" offset="1"/>
    </linearGradient>
  </defs>
  <path style="fill:#000" d="M5.5 1.53h5c2.2 0 3.97 1.77 3.97 3.97v5c0 2.2-1.77 3.97-3.97 3.97h-5a3.96 3.96 0 0 1-3.97-3.97v-5c0-2.2 1.77-3.97 3.97-3.97z"/>
  <path style="fill:url(#z)" d="M5.5.5c-2.752 0-5 2.248-5 5v5c0 2.752 2.248 5 5 5h5c2.752 0 5-2.248 5-5v-5c0-2.752-2.248-5-5-5zm0 2.059h5A2.913 2.913 0 0 1 13.441 5.5v5a2.913 2.913 0 0 1-2.941 2.941h-5A2.913 2.913 0 0 1 2.559 10.5v-5A2.913 2.913 0 0 1 5.5 2.559Z"/>
  <g id="icon-placeholder" />
  <path style="fill:none;stroke:#3b3b3b" d="M5.5.5c-2.752 0-5 2.248-5 5v5c0 2.752 2.248 5 5 5h5c2.752 0 5-2.248 5-5v-5c0-2.752-2.248-5-5-5zm0 2h5c1.647 0 3 1.353 3 3v5c0 1.647-1.353 3-3 3h-5c-1.647 0-3-1.353-3-3v-5c0-1.647 1.353-3 3-3z"/>
</svg>
